{
  "project_info": {
    "project_number": "780390364475",
    "project_id": "nativescript-angular-499d3",
    "storage_bucket": "nativescript-angular-499d3.appspot.com"
  },
  "client": [
    {
      "client_info": {
        "mobilesdk_app_id": "1:780390364475:android:b9c0b23ab17a42125bb31e",
        "android_client_info": {
          "package_name": "org.nativescript.destinoviaje"
        }
      },
      "oauth_client": [
        {
          "client_id": "780390364475-mqdft0cuefb8mdr8hbdei29so1h479pm.apps.googleusercontent.com",
          "client_type": 3
        }
      ],
      "api_key": [
        {
          "current_key": "AIzaSyCkZnAgPIRqwhnBSquRdVpiU8tLwc5CwiY"
        }
      ],
      "services": {
        "appinvite_service": {
          "other_platform_oauth_client": [
            {
              "client_id": "780390364475-mqdft0cuefb8mdr8hbdei29so1h479pm.apps.googleusercontent.com",
              "client_type": 3
            }
          ]
        }
      }
    }
  ],
  "configuration_version": "1"
}